%TF.GenerationSoftware,KiCad,Pcbnew,(6.0.6)*%
%TF.CreationDate,2022-08-05T15:03:02+02:00*%
%TF.ProjectId,ottodiy-pico,6f74746f-6469-4792-9d70-69636f2e6b69,rev?*%
%TF.SameCoordinates,Original*%
%TF.FileFunction,Soldermask,Bot*%
%TF.FilePolarity,Negative*%
%FSLAX46Y46*%
G04 Gerber Fmt 4.6, Leading zero omitted, Abs format (unit mm)*
G04 Created by KiCad (PCBNEW (6.0.6)) date 2022-08-05 15:03:02*
%MOMM*%
%LPD*%
G01*
G04 APERTURE LIST*
%ADD10R,1.700000X1.700000*%
%ADD11O,1.700000X1.700000*%
%ADD12C,3.200000*%
%ADD13C,1.600000*%
%ADD14O,1.600000X1.600000*%
%ADD15R,1.600000X1.600000*%
%ADD16O,1.500000X1.500000*%
%ADD17O,1.800000X1.800000*%
%ADD18O,3.500000X3.500000*%
%ADD19R,1.905000X2.000000*%
%ADD20O,1.905000X2.000000*%
G04 APERTURE END LIST*
D10*
%TO.C,J7*%
X72390000Y-113030000D03*
D11*
X72390000Y-110490000D03*
X72390000Y-107950000D03*
X72390000Y-105410000D03*
X72390000Y-102870000D03*
%TD*%
D12*
%TO.C,H1*%
X74930000Y-118110000D03*
%TD*%
D10*
%TO.C,J4*%
X33005000Y-114300000D03*
D11*
X35545000Y-114300000D03*
X38085000Y-114300000D03*
%TD*%
D13*
%TO.C,R1*%
X27940000Y-88265000D03*
D14*
X27940000Y-80645000D03*
%TD*%
D15*
%TO.C,D2*%
X31750000Y-98425000D03*
D14*
X39370000Y-98425000D03*
%TD*%
D16*
%TO.C,U1*%
X53455000Y-74280000D03*
D17*
X53155000Y-71250000D03*
D16*
X58305000Y-74280000D03*
D17*
X58605000Y-71250000D03*
D11*
X46990000Y-71120000D03*
X46990000Y-73660000D03*
D10*
X46990000Y-76200000D03*
D11*
X46990000Y-78740000D03*
X46990000Y-81280000D03*
X46990000Y-83820000D03*
X46990000Y-86360000D03*
D10*
X46990000Y-88900000D03*
D11*
X46990000Y-91440000D03*
X46990000Y-93980000D03*
X46990000Y-96520000D03*
X46990000Y-99060000D03*
D10*
X46990000Y-101600000D03*
D11*
X46990000Y-104140000D03*
X46990000Y-106680000D03*
X46990000Y-109220000D03*
X46990000Y-111760000D03*
D10*
X46990000Y-114300000D03*
D11*
X46990000Y-116840000D03*
X46990000Y-119380000D03*
X64770000Y-119380000D03*
X64770000Y-116840000D03*
D10*
X64770000Y-114300000D03*
D11*
X64770000Y-111760000D03*
X64770000Y-109220000D03*
X64770000Y-106680000D03*
X64770000Y-104140000D03*
D10*
X64770000Y-101600000D03*
D11*
X64770000Y-99060000D03*
X64770000Y-96520000D03*
X64770000Y-93980000D03*
X64770000Y-91440000D03*
D10*
X64770000Y-88900000D03*
D11*
X64770000Y-86360000D03*
X64770000Y-83820000D03*
X64770000Y-81280000D03*
X64770000Y-78740000D03*
D10*
X64770000Y-76200000D03*
D11*
X64770000Y-73660000D03*
X64770000Y-71120000D03*
X53340000Y-119150000D03*
D10*
X55880000Y-119150000D03*
D11*
X58420000Y-119150000D03*
%TD*%
D15*
%TO.C,C2*%
X35560000Y-67310000D03*
D13*
X33060000Y-67310000D03*
%TD*%
D10*
%TO.C,J8*%
X72390000Y-82550000D03*
D11*
X72390000Y-80010000D03*
X72390000Y-77470000D03*
X72390000Y-74930000D03*
X72390000Y-72390000D03*
%TD*%
D12*
%TO.C,H3*%
X41930000Y-67310000D03*
%TD*%
D15*
%TO.C,D1*%
X31750000Y-100965000D03*
D14*
X39370000Y-100965000D03*
%TD*%
D10*
%TO.C,J2*%
X33020000Y-104140000D03*
D11*
X35560000Y-104140000D03*
X38100000Y-104140000D03*
%TD*%
D15*
%TO.C,C1*%
X27940000Y-67310000D03*
D13*
X25440000Y-67310000D03*
%TD*%
D10*
%TO.C,J3*%
X33035000Y-109220000D03*
D11*
X35575000Y-109220000D03*
X38115000Y-109220000D03*
%TD*%
D18*
%TO.C,U2*%
X35560000Y-75669000D03*
D19*
X33020000Y-92329000D03*
D20*
X35560000Y-92329000D03*
X38100000Y-92329000D03*
%TD*%
D10*
%TO.C,J6*%
X26670000Y-99060000D03*
D11*
X26670000Y-96520000D03*
X26670000Y-93980000D03*
X26670000Y-91440000D03*
%TD*%
D10*
%TO.C,J5*%
X33020000Y-119380000D03*
D11*
X35560000Y-119380000D03*
X38100000Y-119380000D03*
%TD*%
D13*
%TO.C,R2*%
X25400000Y-80645000D03*
D14*
X25400000Y-88265000D03*
%TD*%
D12*
%TO.C,H2*%
X26730000Y-118110000D03*
%TD*%
%TO.C,H4*%
X69830000Y-67310000D03*
%TD*%
D10*
%TO.C,J1*%
X27940000Y-73660000D03*
D11*
X27940000Y-76200000D03*
%TD*%
M02*
